"name","DN"
"Veszprém",6035
"Zalaegerszeg",6021
"Tatabánya",5986
"Szekszárd","6017a"
"Salgótarján",5296
"Békéscsaba",5576
"Eger",5054
"Târgu Jiu",3143
"Slatina",5125
"Alexandria",4368
"Târgoviste",2957
"Giurgiu",4368
"Slobozia",4420
"Delémont",2700
"Neuchâtel",3655
"Aarau",2607
"Stans",2607
"Sion",-46
"Herisau",1399
"Saint Gallen",1399
"Bellinzona",395
"Glarus",1399
"Schaffhausen",3547
"Schwyz",1399
"Frauenfeld",1399
"Altdorf",1399
"Zug",2607
"Falun",-2828
"Nyköping",5730
"Härnösand",431
"Karlskrona",6494
"Alba Lulia",2568
"Bistrita",656
"Deva",2568
"Zalău",4318
"Satu Mare",3354
"Râmnicu Vâlcea",3271
"Sfântu Gheorghe",1501
"Miercurea Cuic",1490
"Piatra Neamt",1555
"Braila",3511
"Vaslui",4630
"Aveiro",14995
"Leiria",14117
"Viana Do Castelo",14560
"Mérida",12898
"Beja",13634
"Évora",14292
"Portalegre",13427
"Santarém",14788
"Bragança",11606
"Castelo Branco",12478
"Guarda",11833
"Viseu",13290
"Vila Real",12480
"Assen",5361
"Arnhem",6118
"Maastricht",6636
"Zwolle","5533a"
"Middelburg",7465
"'s-Hertogenbosch",6131
"Arendal",5608
"Vossavangen",-7088
"Leikanger",-8619
"Bærum",-312
"Hamar",-3255
"Tønsberg",3971
"Fribourg",-46
"Liestal",2700
"Solothurn",2700
"Sarnen",2607
"Mariestad",5485
"Vänersborg",5558
"Appenzell",-1010
"Ros Comain",12185
"Potenza",8756
"Campobasso",8333
"Aosta",785
"Diekirch",5644
"Grevenmacher",4979
"Šibenik",9233
"Haapsalu",6549
"Viljandi",3643
"Lamia",8738
"Polygyros",8411
"Komatini",7039
"Mariehamn",5068
"Hämeenlinna",3783
"Kouvola",4216
"Mikkeli",3881
"Muineachan",12212
"Vejle",6590
"Hillerød",6840
"Sorø",7190
"Mons",5939
"Hasselt",6497
"Lovec",5802
"Montana",5665
"Razgrad",5393
"Arlon",4979
"Bregenz",-1010
"Eisenstadt","5313a"
"Larnaka",15084
"Paphos",15162
"Kyrenia",14473
"Klaksvík",10537
"Mainz",5475
"Ústí nad Labem",5132
"Hradec Králové",4847
"Schwerin",5980
"Marbella",13656
"Linares",11827
"Algeciras",15275
"León",10096
"Mataró",12222
"Chur",-367
"Borlänge",-2828
"Västerås",3397
"Gijón",11250
"Vitoria",10262
"Sunderland",8011
"Southampton",9005
"Bristol","8750b"
"Bournemouth",9499
"Omagh",12129
"Chester",8275
"Swansea",9826
"Carlisle",8370
"Southend-on-Sea",8577
"Reading",8414
"Leicester",8132
"Bradford",7807
"Sheffield","7917b"
"Szombathely",5289
"Kecskemét",5837
"Székesfehérvár",5986
"Nyíregyháza",4844
"Biel",2700
"Drobeta-Turnu Severin",3386
"Tulcea",5083
"Arad",5576
"Oradea",4988
"Sibiu",3040
"Suceava",2435
"Buzau",1963
"Galati",3920
"Focsani",1060
"Braga",12986
"Covilhã",11833
"Finnsnes",7707
"Eindhoven",6131
"Gjøvik",-3965
"Rørvik","4992b"
"Banská Bystrica",4203
"Trnava",5941
"Rēzekne",1723
"Panevezys",2656
"Siauliai",2548
"Olsztyn",4591
"Elblag",4611
"Inowrocław",5418
"Bytom",5114
"Opole",5515
"Shannon",11645
"Waterford",12891
"Tralee",11911
"Donegal",12204
"Modena",4651
"Crotone",14154
"Vibo Valentia",13823
"Reggio di Calabria",15121
"Caserta",9457
"Barletta",10981
"Ragusa",15231
"Asti",2781
"Novara",1736
"Como",2184
"Udine",5403
"Treviso",2511
"Annecy",3496
"Roanne",5139
"Bielefeld",5327
"Dortmund",5835
"Duisburg",6235
"Wuppertal",5889
"Essen",6235
"Karlsruhe",4657
"Heidelberg",5262
"Kassel",4810
"Emden",5279
"Braunschweig",5089
"Erfurt",4618
"Karlovac",5591
"Rijeka",7352
"Coburg",4353
"Augsburg",1011
"Fürth",3999
"Ceské Budejovice",4366
"Liberec",5124
"Chemnitz",4750
"Slavonski Brod",4850
"Olomouc","4688b"
"Kohtla-Järve",4333
"Saint-Brieuc",10351
"Poitiers",8649
"Angers",7089
"Biarritz",11067
"Aix-en-Provence",6237
"Perpignan",10487
"Tarbes",9852
"Clermont-Ferrand",6046
"Melun",5103
"Arras",6005
"Besançon",3976
"Piraeus",11847
"Volos",10528
"Hania",13808
"Kavala",5993
"Alexandroupoli",8256
"Savonlinna",4490
"Pori",3810
"Viborg",6203
"Roskilde",6929
"Gent",6517
"Sliven","6025a"
"Plovdiv",5020
"Pernik",4246
"Vratsa",5665
"Shumen",5066
"Wiener Neustadt","5313a"
"Liège",6497
"Famagusta",15084
"Fort William",8477
"Koszalin","4992a"
"Almería",15384
"Málaga",12134
"Jaén",11731
"Huelva",14096
"Albacete",9109
"Toledo",11059
"Guadalajara","9883b"
"Santander",10969
"Salamanca",11893
"Burgos",10132
"Tarragona",10751
"Luzern",2607
"Lugano",2184
"Bollnäs",-278
"Gävle",-246
"Kalmar","6634a"
"Växjö",6329
"Örebro",3342
"Norrköping",5502
"Halmstad",6523
"Karlstad",3110
"Skellefteå",2987
"Visby",6907
"Egilsstaðir",8366
"Sauðárkrókur",8815
"Selfoss",11317
"Lorca",14427
"Cartagena",16134
"Oviedo",11250
"Santiago de Compostela",13272
"Badajoz",13151
"Logroño",10347
"San Sebastián",13296
"Ayr",9345
"Aberdeen",9396
"Perth",8019
"Dundee",8180
"Middlesbrough",8011
"Coventry",8132
"Bath","8750b"
"Exeter",11229
"Cambridge","8455b"
"Kingston-upon-Hull",9152
"Londonderry",12129
"Lisburn",11984
"Penzance",13130
"York",7990
"Blackpool",8313
"Dumfries",9691
"Scarborough",7990
"Plymouth",12232
"Ipswich",8332
"Norwich",8836
"Brighton",8736
"Kirkwall",10650
"Inverness",8942
"Oxford",8480
"Luton",8414
"Portsmouth",8736
"Peterborough","8455b"
"Nottingham","7917b"
"Stoke",7939
"Pécs",6661
"Győr",5920
"Kaposvár",6366
"Vác",5296
"Miskolc","4981b"
"Szeged",5211
"Debrecen",4988
"Szolnok",5548
"Dover",8185
"Lausanne",3184
"Basel",2700
"Trollhättan",5558
"Borås",6108
"Kristianstad",6398
"Helsingborg",6583
"Alicante",13271
"Castellón de la Plana",13232
"Craiova",5125
"Calarasi",3699
"Maribor",4937
"Resita",5471
"Timisoara",5964
"Botosani","4372a"
"Baia Mare",3354
"Târgu Mures",2841
"Pitesti",3271
"Brasov",1501
"Ploiesti",2587
"Bacau",3082
"Horta",15162
"Angra do Heroísmo",14778
"Portimão",13836
"Faro",15929
"Coimbra",13290
"Leeuwarden",5741
"Groningen",5361
"Harstad",8356
"Utrecht",6131
"Ålesund",-4229
"Sandnes",5234
"Drammen",-564
"Moss",3971
"Steinkjer",1851
"Ventspils","5342b"
"Klaipeda",4754
"Zvolen",4203
"Žilina",4369
"Kosice",4230
"Prešov",4230
"Kaunas",2972
"Jelgava",2792
"Haarlem",6567
"Elk",4125
"Gdynia",5408
"Wroclaw",5364
"Szczecin",5632
"Zielona Góra",5442
"Poznan",5468
"Grudziadz",4841
"Bydgoszcz",4904
"Katowice",5114
"Gliwice",5114
"Kielce",4773
"Bialystok",3911
"Lublin",4865
"Rzeszów",4464
"Drogheda",11589
"Dundalk",12212
"Galway",11864
"Kilkenny",12545
"Killarney",12188
"Sligo",12185
"Parma",4012
"Ravenna",6671
"Ferrara",4651
"Bologna",5717
"Olbia",11779
"Cagliari",14136
"Pisa",7323
"Livorno",7323
"Siena",6810
"Arezzo",7005
"Catanzaro",13788
"Salerno",8849
"Benevento",8333
"Bari",10981
"Foggia",8323
"Lecce",13982
"Brindisi",13982
"Taranto",12507
"Messina",15121
"Marsala",14741
"Siracusa",15231
"Pescara",9420
"L'Aquila",7290
"Civitavecchia",7861
"Ancona",9352
"Perugia",6768
"Bergamo",1944
"Trieste",5403
"Bolzano",-1376
"Trento",3033
"Verona",3033
"Saint-Étienne",5323
"Grenoble",2074
"Dubrovnik",5164
"Split",7911
"Zadar",8358
"Bonn",6388
"Münster",5835
"Düsseldorf",6388
"Ulm",4445
"Mannheim",5338
"Freiburg",3918
"Giessen",5250
"Wiesbaden",5475
"Bremerhaven",5295
"Osnabrück",5373
"Hannover",5032
"Göttingen",4917
"Gera",4720
"Jena",4618
"Flensburg",5761
"Lübeck",5751
"Kiel",5751
"Koblenz",5636
"Saarbrücken","5163a"
"Plzen",3996
"Regensburg",3443
"Rosenheim",210
"Hof",3894
"Würzburg",5055
"Ingolstadt",3934
"Pula",7453
"Jihlava",4776
"Zlín",4779
"Brno",4667
"Pardubice",4847
"Cottbus",5617
"Potsdam",5651
"Magdeburg",5278
"Leipzig",4750
"Osijek",5819
"Ostrava",4779
"Cherbourg",9394
"Caen",3238
"Lorient",9322
"Brest",12937
"Le Mans","6017b"
"Nantes",8099
"Agen",10387
"Ajaccio",9751
"Bastia",10078
"Toulon","5081b"
"Béziers",8228
"Montpellier",10911
"Nîmes",11352
"Vichy",5139
"Nevers",4943
"Auxerre",4189
"Dijon",4324
"Bourges","5313b"
"Tours","6634b"
"Orléans",4710
"Dieppe",8524
"Rouen",7380
"Versailles",5421
"Brive",9116
"Troyes",4189
"Reims",5459
"Calais",8185
"Amiens",6649
"Mulhouse",3918
"Nancy",4527
"Metz",4527
"Qasigiannguit",5780
"Kerkira",7098
"Tripoli",7953
"Sparti",11531
"Agrinio",8492
"Pirgos",9208
"Larisa",8838
"Ioannina",5666
"Chalkida",10772
"Sitia",14329
"Katerini","7294a"
"Seres",5276
"Xanthi",5993
"Ermoupoli",13076
"Stralsund",6132
"Rostock",6010
"Sodankylä",5986
"Jyväskylä",3602
"Kuopio","4372b"
"Lappeenranta",4637
"Porvoo",3882
"Svendborg",6659
"Odense",6995
"Esbjerg",6822
"Frederikshavn",6853
"Aalborg",6843
"Brugge",6381
"Namur",5705
"Charleroi",5705
"Khaskovo",5907
"Stara Zagora",5908
"Pleven",5802
"Kyustendil",1787
"Dobrich",5800
"Varna",5800
"Ruse",5393
"Graz",4192
"Klagenfurt",1900
"Linz",2832
"Passau",3760
"Salzburg",271
"Innsbruck",-2782
"Lemesos",15096
"Douglas",10666
"Arrecife",17319
"San Marino","7917a"
"Vaduz",-1010
"Mindelo",20392
"Kullorsuaq",-5311
"Tasiusaq",-3989
"Cadiz",14489
"Granada",11731
"Gibraltar",15275
"Jönköping",6163
"Örnsköldsvik",3147
"Höfn",8209
"Murcia",10452
"A Coruña",14535
"Ourense",12147
"City of Edinburgh",8180
"Newcastle upon Tyne",8011
"Liverpool",8275
"Cardiff",9260
"Wick",10229
"Leeds",7807
"Pamplona",10228
"Svolvær",9111
"Mo i Rana","5342c"
"Narvik",7185
"Bodø","8750a"
"Setúbal",15226
"Porto",12986
"Longyearbyen",-1860
"Rotterdam",6485
"Luxembourg",4979
"Haugesund",5851
"Stavanger","3267b"
"Skien",2884
"Namsos","4992b"
"Liepaja",3937
"Alta",5488
"Vadsø","5533b"
"Cork",12459
"Sassari",12219
"Tórshavn",10537
"Stuttgart",4499
"Bremen",5207
"Nürnberg",3999
"Rennes",6473
"Nice",9712
"Toulouse",9116
"Limoges",8813
"Lille",6381
"Strasbourg",4540
"Kulusuk",8723
"Paamiut",-8833
"Ittoqqortoormiit",-305
"Timmiarmiut",7085
"Qaqortoq",-1152
"Kangerlussuaq",1216
"Nord",-7158
"Qeqertasuaq",3164
"Nuussuaq",-5311
"Ilulissat",5780
"Patra",8492
"Kemijärvi",5192
"Kokkola",3630
"Lahti",3882
"Joensuu",4901
"Turku",4027
"Ísafjörður",10072
"Akureyi",7489
"Keflavík",11501
"Antwerpen",6503
"Lerwick",10245
"Valladolid",10618
"Linköping",5582
"Östersund",529
"Kiruna",6757
"Umeå",2277
"Uppsala",1362
"Cluj-Napoca",4077
"Melilla",16033
"Funchal",17155
"Palma de Mallorca",14129
"Molde",2285
"Lillehammer",-5422
"Kirkenes","5533b"
"Zaragoza",10167
"Göteborg",6361
"Limerick",12034
"Genova",8506
"Daugavpils",1780
"Köln",6388
"Tartu",3228
"Pärnu",4022
"La Rochelle",8841
"Kalamata",12249
"Iraklio",13885
"Kemi",5192
"Oulu",4733
"Aarhus",6562
"Burgas",6505
"Monaco",9712
"Tasiilaq",8723
"Andorra",6861
"Savissivik",-6054
"Kangersuatsiaq",-1707
"Uummannaq",4217
"Santa Cruz de Tenerife",17225
"Manchester",7939
"Birmingham",8231
"Belfast",11721
"Córdoba",12272
"Constanta",4997
"Luleå",5874
"Sundsvall",774
"Iasi",4685
"Ponta Delgada",15594
"Vigo",14560
"Bilbao",11225
"The Hague",6485
"Kristiansand",4293
"Ljubljana",4239
"Bratislava",5941
"Hammerfest",5704
"Kraków",4496
"Bern",2700
"Malmö",6855
"Catania",12258
"Dresden",4947
"Bordeaux",9370
"Marseille",6237
"Le Havre",8238
"Narsarsuaq",-4282
"Sisimiut",-1132
"Upernavik",-3365
"Qaanaaq",-12245
"Skopje",1646
"Rovaniemi",5431
"Vaasa",2919
"Tampere",3116
"Venezia",2511
"Las Palmas",18139
"Reykjavík",10175
"Glasgow City",8098
"Sevilla",13594
"Tromsø",7512
"Trondheim",3398
"Bergen",2163
"Valencia",8980
"Palermo",14389
"Vilnius",1569
"Riga",2792
"Lyon",5323
"Zagreb",5591
"Tallinn",5138
"Nuuk",258
"Thessaloniki",8411
"Tirana",7253
"Oran",15918
"Sofia",4246
"Sarajevo",1606
"Valletta",17256
"Budapest",5986
"Barcelona",12222
"Bucuresti",4174
"Zürich",2607
"Lisboa",14788
"Oslo",-564
"Warszawa",5112
"Dublin",11999
"Napoli",11427
"Milano",2184
"Frankfurt am Main",5250
"Hamburg",5212
"München",1011
"Praha",4886
"Helsinki",5732
"København",6855
"Bruxelles",6503
"Madrid",10445
"Genève",4461
"Stockholm",3750
"Amsterdam",6526
"Berlin","5700a"
"Athens",11847
"Wien","5313a"
"London (greater city)",8516
"Roma",7167
"Paris",5421
"Medway",8577
"Torino",1730
"Lódz",5251
"Sintra",15602
"Vidin",5276
"Gdansk",4671
"Firenze",6810
"Croydon",8784
"North Lanarkshire (Airdrie",8619
"Hillingdon",8414
"Tower Hamlets",8185
"Vila Nova de Gaia",12986
"Greenwich",8332
"Havering",10130
"Aachen",6636
"Lens",6005
"Lefkosia",14473
"Halle (Saale)",5379
"Czestochowa","5342a"
"Aberdeen City",9396
"Northampton",8207
"Swindon",8480
"Radom","5163b"
"Jerez de la Frontera","4981a"
"Sosnowiec",4837
"Torun",4841
"Brescia",2706
"Alcalá de Henares","9883a"
"Dunkerque","7294b"
"Valenciennes",5939
"Bath and North East Somerset",9499
"Avignon",6848
"Matosinhos",14632
"Bielsko-Biala",4369
"Nijmegen",6118
"Maidstone",8595
"Oldenburg (Oldenburg)",5295
"North East Lincolnshire",8753
"Falkirk",8019
"Enschede",5514
"Apeldoorn","5533a"
"Derry & Strabane Local Government District",12129
"Rimini","7917a"
"Blackburn with Darwen",7673
"Pau",9852
"Paderborn",5118
"Preston",8313
"Lleida",11288
"Torbay",11629
"Bayonne",11067
"Latina",11608
"Gorzów Wielkopolski",5660
"Plock",5172
"Giugliano in Campania",9457
"Valence",4169
"Walbrzych",5124
"Montbéliard",3655
"Wloclawek",5290
"Tarnów",4252
"Chartres",5544
"Lund",6606
"Mansfield",8373
"Chalon-sur-Saône",5031
"Winterthur",1399
"Niort",8166
"Angoulême",9098
"Kalisz",5571
"Piacenza",3592
"Telde",18216
"Siegen",5376
"Lugo",12152
"Girona",9496
"Lincoln",8116
"Kaiserslautern",5293
"Belfort",4017
"Cáceres",12248
"La Spezia",4915
"Alessandria",2781
"Slupsk",5096
"Fréjus",4606
"Quimper",11312
"Talavera de la Reina",11370
"Nowy Sacz",3464
"Pontevedra",12980
"Villingen-Schwenningen",3821
"Albi",8087
"Grosseto",7694
"Konstanz",3547
"Jelenia Góra","4981b"
"Beauvais",6363
"Inverclyde (Greenock)",8098
"Brive-la-Gaillarde",9116
"Neumünster",5512
"Gela",14921
"Siedlce",4681
"Konin",5418
"Gandia",14348
"Manresa",7858
"St. Gallen",-1010
"Pila",5195
"Alba Iulia",2568
"Ciudad Real",11115
"Haskovo",5907
"Lubin",5469
"Marburg","5081a"
"Bârlad",4630
"Saint-Quentin","6025b"
"Lüneburg",5329
"Pavia","3267a"
"Bamberg",4353
"Ostrowiec Swietokrzyski",4944
"Châteauroux","8455a"
"Roman",4074
"Altamura",10147
"Pazardzhik",3969
"Blagoevgrad",2767
"Massa",5391
"Suwalki",3669
"Trapani",15003
"Stargard Szczecinski",5481
"Chomutov-Jirkov",4223
"Charleville-Mézières",5143
"Benidorm",15501
"Ponferrada",11142
"Kempten (Allgäu)",2266
"Fulda",4966
"Zamosc",4556
"Tomaszów Mazowiecki",5149
"Plauen",3894
"Châlons-en-Champagne",4471
"Przemysl",3992
"Neubrandenburg",5811
"Lomza",4564
"Savona",5783
"Alcoy",10693
"Friedrichshafen",3022
"Narva",4377
"Ávila",10619
"Frankfurt (Oder)","5700b"
"Greifswald",6297
"Trencín",5174
"Avellino",8333
"Cuenca",9545
"Pordenone",2696
"Schweinfurt","4688a"
"Eivissa",14556
"Karlovy Vary",3738
"Mantova",4012
"Reggio Emilia",4012
"Ivrea",785
"Padova",2511
"Belluno",-2235
"Gorizia",5403
"Cecina",7323
"Piombino",9881
"Carrara",4915
"Lucca",7323
"Viareggio",5391
"Pistoia",6810
"Montecatini",5392
"Prato",6810
"Empoli",6810
"Fredrikstad",3971
"Espoo",5732
"Vantaa",5732
"Kotka",4216
"Eskilstuna",3397
"Skövde",5485
"Randers",6203
"Kolding",5795
"Horsens",6590
"Næstved",7190
"Slagelse",7190
"Imperia",5783
"Beograd",6353
"Podgorica",2111
"Pristina",1811
"Novi Sad",5300
"Banja Luka",5201
"Bitola",1463
"Nis",4595
"Tuzla",1992
"Kragujevac",5957
"Subotica",4852
"Durrës",7253
"Vlorë",7669
"Elbasan",2735
"Shkodër",4455
"Prizren",1663
